{
"resHelper_d0_vs_$TRKTAG_eta" : {
    "type" : "TH2F",
    "xAxis" : { "title" : "$TRKTYPE #eta", "nBins" : "64", "low" : "-$ETAMAX", "high" : "+$ETAMAX" },
    "yAxis" : { "title" : "d_{0} residual [mm]", "nBins" : "3000", "low" : "-10.0", "high" : "+10.0" }
},
"resHelper_z0_vs_$TRKTAG_eta" : {
    "type" : "TH2F",
    "xAxis" : { "title" : "$TRKTYPE #eta", "nBins" : "64", "low" : "-$ETAMAX", "high" : "+$ETAMAX" },
    "yAxis" : { "title" : "z_{0} residual [mm]", "nBins" : "2000", "low" : "-20.0", "high" : "+20.0" }
},
"resHelper_qoverp_vs_$TRKTAG_eta" : {
    "type" : "TH2F",
    "xAxis" : { "title" : "$TRKTYPE #eta", "nBins" : "64", "low" : "-$ETAMAX", "high" : "+$ETAMAX" },
    "yAxis" : { "title" : "q/p residual [GeV^{-1}]", "nBins" : "2000", "low" : "-5.0", "high" : "+5.0" }
},
"resHelper_ptqopt_vs_$TRKTAG_eta" : {
    "type" : "TH2F",
    "xAxis" : { "title" : "$TRKTYPE #eta", "nBins" : "64", "low" : "-$ETAMAX", "high" : "+$ETAMAX" },
    "yAxis" : { "title" : "(q/p_{T}) / ($TRKTYPE q/p_{T}) - 1", "nBins" : "2000", "low" : "-2.0", "high" : "+2.0" }
},
"resolution_ptqopt_vs_$TRKTAG_eta" : {
    "yAxis" : { "title" : "Relative q/pT resolution" }
},
"resmean_ptqopt_vs_$TRKTAG_eta" : {
    "yAxis" : { "title" : "Relative q/pT bias" }
},
"resHelper_theta_vs_$TRKTAG_eta" : {
    "type" : "TH2F",
    "xAxis" : { "title" : "$TRKTYPE #eta", "nBins" : "64", "low" : "-$ETAMAX", "high" : "+$ETAMAX" },
    "yAxis" : { "title" : "#theta residual", "nBins" : "1000", "low" : "-0.1", "high" : "+0.1" }
},
"resHelper_phi_vs_$TRKTAG_eta" : {
    "type" : "TH2F",
    "xAxis" : { "title" : "$TRKTYPE #eta", "nBins" : "64", "low" : "-$ETAMAX", "high" : "+$ETAMAX" },
    "yAxis" : { "title" : "#theta residual", "nBins" : "1000", "low" : "-0.2", "high" : "+0.2" }
},
"resHelper_pt_vs_$TRKTAG_eta" : {
    "type" : "TH2F",
    "xAxis" : { "title" : "$TRKTYPE #eta", "nBins" : "64", "low" : "-$ETAMAX", "high" : "+$ETAMAX" },
    "yAxis" : { "title" : "p_{T} residual [GeV]", "nBins" : "1000", "low" : "-100.0", "high" : "+100.0" }
},
"resHelper_z0sin_vs_$TRKTAG_eta" : {
    "type" : "TH2F",
    "xAxis" : { "title" : "$TRKTYPE #eta", "nBins" : "64", "low" : "-$ETAMAX", "high" : "+$ETAMAX" },
    "yAxis" : { "title" : "z_{0}sin#theta residual [mm]", "nBins" : "1000", "low" : "-10.0", "high" : "+10.0" }
},
"resHelper_eta_vs_$TRKTAG_eta" : {
    "type" : "TH2F",
    "xAxis" : { "title" : "$TRKTYPE #eta", "nBins" : "64", "low" : "-$ETAMAX", "high" : "+$ETAMAX" },
    "yAxis" : { "title" : "#eta residual", "nBins" : "1000", "low" : "-$ETAMAX", "high" : "$ETAMAX" }
},
"resHelper_d0_vs_$TRKTAG_pt" : {
    "type" : "TH2F",
    "xAxis" : { "title" : "$TRKTYPE p_{T} [GeV]", "nBins" : "49", "low" : "0.745", "high" : "1000.0", "doLogLinBins" : "true" },
    "yAxis" : { "title" : "d_{0} residual [mm]", "nBins" : "1000", "low" : "-10.0", "high" : "+10.0" }
},
"resHelper_z0_vs_$TRKTAG_pt" : {
    "type" : "TH2F",
    "xAxis" : { "title" : "$TRKTYPE p_{T} [GeV]", "nBins" : "49", "low" : "0.745", "high" : "1000.0", "doLogLinBins" : "true" },
    "yAxis" : { "title" : "z_{0} residual [mm]", "nBins" : "2000", "low" : "-20.0", "high" : "+20.0" }
},
"resHelper_qoverp_vs_$TRKTAG_pt" : {
    "type" : "TH2F",
    "xAxis" : { "title" : "$TRKTYPE p_{T} [GeV]", "nBins" : "49", "low" : "0.745", "high" : "1000.0", "doLogLinBins" : "true" },
    "yAxis" : { "title" : "q/p residual [GeV^{-1}]", "nBins" : "2000", "low" : "-5.0", "high" : "+5.0" }
},
"resHelper_ptqopt_vs_$TRKTAG_pt" : {
    "type" : "TH2F",
    "xAxis" : { "title" : "$TRKTYPE p_{T} [GeV]", "nBins" : "49", "low" : "0.745", "high" : "1000.0", "doLogLinBins" : "true" },
    "yAxis" : { "title" : "(q/p_{T}) / ($TRKTYPE q/p_{T}) - 1", "nBins" : "2000", "low" : "-2.0", "high" : "+2.0" }
},
"resolution_ptqopt_vs_$TRKTAG_pt" : {
    "yAxis" : { "title" : "Relative q/pT resolution" }
},
"resmean_ptqopt_vs_$TRKTAG_pt" : {
    "yAxis" : { "title" : "Relative q/pT bias" }
},
"resHelper_theta_vs_$TRKTAG_pt" : {
    "type" : "TH2F",
    "xAxis" : { "title" : "$TRKTYPE p_{T} [GeV]", "nBins" : "49", "low" : "0.745", "high" : "1000.0", "doLogLinBins" : "true" },
    "yAxis" : { "title" : "#theta residual", "nBins" : "1000", "low" : "-0.1", "high" : "+0.1" }
},
"resHelper_phi_vs_$TRKTAG_pt" : {
    "type" : "TH2F",
    "xAxis" : { "title" : "$TRKTYPE p_{T} [GeV]", "nBins" : "49", "low" : "0.745", "high" : "1000.0", "doLogLinBins" : "true" },
    "yAxis" : { "title" : "#theta residual", "nBins" : "1000", "low" : "-0.2", "high" : "+0.2" }
},
"resHelper_pt_vs_$TRKTAG_pt" : {
    "type" : "TH2F",
    "xAxis" : { "title" : "$TRKTYPE p_{T} [GeV]", "nBins" : "49", "low" : "0.745", "high" : "1000.0", "doLogLinBins" : "true" },
    "yAxis" : { "title" : "p_{T} residual [GeV]", "nBins" : "1000", "low" : "-100.0", "high" : "+100.0" }
},
"resHelper_z0sin_vs_$TRKTAG_pt" : {
    "type" : "TH2F",
    "xAxis" : { "title" : "$TRKTYPE p_{T} [GeV]", "nBins" : "49", "low" : "0.745", "high" : "1000.0", "doLogLinBins" : "true" },
    "yAxis" : { "title" : "z_{0}sin#theta residual [mm]", "nBins" : "1000", "low" : "-10.0", "high" : "+10.0" }
},
"resHelper_eta_vs_$TRKTAG_pt" : {
    "type" : "TH2F",
    "xAxis" : { "title" : "$TRKTYPE p_{T} [GeV]", "nBins" : "49", "low" : "0.745", "high" : "1000.0", "doLogLinBins" : "true" },
    "yAxis" : { "title" : "#eta residual", "nBins" : "1000", "low" : "-$ETAMAX", "high" : "$ETAMAX" }
},
"res_d0" : {
    "type" : "TH1F",
    "xAxis" : { "title" : "d_{0} residual [mm]", "nBins" : "100", "low" : "-10.0", "high" : "10.0" },
    "yAxis" : { "title" : "Entries" }
},
"res_z0" : {
    "type" : "TH1F",
    "xAxis" : { "title" : "z_{0} residual [mm]", "nBins" : "100", "low" : "-20.0", "high" : "20.0" },
    "yAxis" : { "title" : "Entries" }
},
"res_qoverp" : {
    "type" : "TH1F",
    "xAxis" : { "title" : "q/p residual [GeV^{-1}]", "nBins" : "100", "low" : "-5.0", "high" : "5.0" },
    "yAxis" : { "title" : "Entries" }
},
"res_ptqopt" : {
    "type" : "TH1F",
    "xAxis" : { "title" : "q/pT residual", "nBins" : "100", "low" : "-2.0", "high" : "2.0" },
    "yAxis" : { "title" : "Entries" }
},
"res_theta" : {
    "type" : "TH1F",
    "xAxis" : { "title" : "#theta residual", "nBins" : "100", "low" : "-0.10", "high" : "0.10" },
    "yAxis" : { "title" : "Entries" }
},
"res_phi" : {
    "type" : "TH1F",
    "xAxis" : { "title" : "#phi residual", "nBins" : "100", "low" : "-0.20", "high" : "0.20" },
    "yAxis" : { "title" : "Entries" }
},
"res_pt" : {
    "type" : "TH1F",
    "xAxis" : { "title" : "p_{T} residual [GeV]", "nBins" : "100", "low" : "-100.0", "high" : "100.0" },
    "yAxis" : { "title" : "Entries" }
},
"res_z0sin" : {
    "type" : "TH1F",
    "xAxis" : { "title" : "z_{0}sin#theta residual [mm]", "nBins" : "100", "low" : "-10.0", "high" : "10.0" },
    "yAxis" : { "title" : "Entries" }
},
"res_eta" : {
    "type" : "TH1F",
    "xAxis" : { "title" : "#eta residual", "nBins" : "100", "low" : "-$ETAMAX", "high" : "$ETAMAX" },
    "yAxis" : { "title" : "Entries" }
},
"sigma_$TRKTAG_d0" : {
    "type" : "TH1F",
    "xAxis" : { "title" : "#sigma(d_{0}) [mm]", "nBins" : "100", "low" : "0.0", "high" : "10.0" },
    "yAxis" : { "title" : "Entries" }
},
"sigma_$TRKTAG_z0" : {
    "type" : "TH1F",
    "xAxis" : { "title" : "#sigma(z_{0}) [mm]", "nBins" : "100", "low" : "0.0", "high" : "20.0" },
    "yAxis" : { "title" : "Entries" }
},
"sigma_$TRKTAG_qoverp" : {
    "type" : "TH1F",
    "xAxis" : { "title" : "#sigma(q/p) [GeV^{-1}]", "nBins" : "100", "low" : "0.0", "high" : "5.0" },
    "yAxis" : { "title" : "Entries" }
},
"sigma_$TRKTAG_ptqopt" : {
    "type" : "TH1F",
    "xAxis" : { "title" : "#sigma(q/pT)", "nBins" : "100", "low" : "0.0", "high" : "2.0" },
    "yAxis" : { "title" : "Entries" }
},
"sigma_$TRKTAG_theta" : {
    "type" : "TH1F",
    "xAxis" : { "title" : "#sigma(#theta)", "nBins" : "100", "low" : "0.0", "high" : "0.10" },
    "yAxis" : { "title" : "Entries" }
},
"sigma_$TRKTAG_phi" : {
    "type" : "TH1F",
    "xAxis" : { "title" : "#sigma(#phi)", "nBins" : "100", "low" : "0.0", "high" : "0.20" },
    "yAxis" : { "title" : "Entries" }
},
"sigma_$TRKTAG_pt" : {
    "type" : "TH1F",
    "xAxis" : { "title" : "#sigma((p_{T}) [GeV]", "nBins" : "100", "low" : "0.0", "high" : "100.0" },
    "yAxis" : { "title" : "Entries" }
},
"sigma_$TRKTAG_z0sin" : {
    "type" : "TH1F",
    "xAxis" : { "title" : "#sigma(z_{0}sin#theta) [mm]", "nBins" : "100", "low" : "0.0", "high" : "10.0" },
    "yAxis" : { "title" : "Entries" }
},
"sigma_$TRKTAG_eta" : {
    "type" : "TH1F",
    "xAxis" : { "title" : "#sigma(#eta)", "nBins" : "100", "low" : "0.0", "high" : "2.0" },
    "yAxis" : { "title" : "Entries" }
},
"pull_d0" : {
    "type" : "TH1F",
    "xAxis" : { "title" : "d_{0} pull", "nBins" : "100", "low" : "-10.0", "high" : "10.0" },
    "yAxis" : { "title" : "Entries" }
},
"pull_z0" : {
    "type" : "TH1F",
    "xAxis" : { "title" : "z_{0} pull", "nBins" : "100", "low" : "-10.0", "high" : "10.0" },
    "yAxis" : { "title" : "Entries" }
},
"pull_qoverp" : {
    "type" : "TH1F",
    "xAxis" : { "title" : "q/p pull", "nBins" : "100", "low" : "-10.0", "high" : "10.0" },
    "yAxis" : { "title" : "Entries" }
},
"pull_ptqopt" : {
    "type" : "TH1F",
    "xAxis" : { "title" : "q/pT pull", "nBins" : "100", "low" : "-10.0", "high" : "10.0" },
    "yAxis" : { "title" : "Entries" }
},
"pull_theta" : {
    "type" : "TH1F",
    "xAxis" : { "title" : "#theta pull", "nBins" : "100", "low" : "-10.0", "high" : "10.0" },
    "yAxis" : { "title" : "Entries" }
},
"pull_phi" : {
    "type" : "TH1F",
    "xAxis" : { "title" : "#phi pull", "nBins" : "100", "low" : "-10.0", "high" : "10.0" },
    "yAxis" : { "title" : "Entries" }
},
"pull_pt" : {
    "type" : "TH1F",
    "xAxis" : { "title" : "p_{T} pull", "nBins" : "100", "low" : "-10.0", "high" : "10.0" },
    "yAxis" : { "title" : "Entries" }
},
"pull_z0sin" : {
    "type" : "TH1F",
    "xAxis" : { "title" : "z_{0}sin#theta pull", "nBins" : "100", "low" : "-10.0", "high" : "10.0" },
    "yAxis" : { "title" : "Entries" }
},
"pull_eta" : {
    "type" : "TH1F",
    "xAxis" : { "title" : "#eta residual", "nBins" : "100", "low" : "-$ETAMAX", "high" : "$ETAMAX" },
    "yAxis" : { "title" : "Entries" }
},
"pullHelper_d0_vs_$TRKTAG_eta" : {
    "type" : "TH2F",
    "xAxis" : { "title" : "$TRKTYPE #eta", "nBins" : "64", "low" : "-$ETAMAX", "high" : "+$ETAMAX" },
    "yAxis" : { "title" : "d_{0} pull", "nBins" : "100", "low" : "-10.0", "high" : "+10.0" }
},
"pullHelper_z0_vs_$TRKTAG_eta" : {
    "type" : "TH2F",
    "xAxis" : { "title" : "$TRKTYPE #eta", "nBins" : "64", "low" : "-$ETAMAX", "high" : "+$ETAMAX" },
    "yAxis" : { "title" : "z_{0} pull", "nBins" : "100", "low" : "-10.0", "high" : "+10.0" }
},
"pullHelper_qoverp_vs_$TRKTAG_eta" : {
    "type" : "TH2F",
    "xAxis" : { "title" : "$TRKTYPE #eta", "nBins" : "64", "low" : "-$ETAMAX", "high" : "+$ETAMAX" },
    "yAxis" : { "title" : "q/p pull", "nBins" : "100", "low" : "-10.0", "high" : "+10.0" }
},
"pullHelper_ptqopt_vs_$TRKTAG_eta" : {
    "type" : "TH2F",
    "xAxis" : { "title" : "$TRKTYPE #eta", "nBins" : "64", "low" : "-$ETAMAX", "high" : "+$ETAMAX" },
    "yAxis" : { "title" : "q/p_{T} pull", "nBins" : "100", "low" : "-10.0", "high" : "+10.0" }
},
"pullHelper_theta_vs_$TRKTAG_eta" : {
    "type" : "TH2F",
    "xAxis" : { "title" : "$TRKTYPE #eta", "nBins" : "64", "low" : "-$ETAMAX", "high" : "+$ETAMAX" },
    "yAxis" : { "title" : "#eta pull", "nBins" : "100", "low" : "-10.0", "high" : "+10.0" }
},
"pullHelper_phi_vs_$TRKTAG_eta" : {
    "type" : "TH2F",
    "xAxis" : { "title" : "$TRKTYPE #eta", "nBins" : "64", "low" : "-$ETAMAX", "high" : "+$ETAMAX" },
    "yAxis" : { "title" : "#phi pull", "nBins" : "100", "low" : "-10.0", "high" : "+10.0" }
},
"pullHelper_pt_vs_$TRKTAG_eta" : {
    "type" : "TH2F",
    "xAxis" : { "title" : "$TRKTYPE #eta", "nBins" : "64", "low" : "-$ETAMAX", "high" : "+$ETAMAX" },
    "yAxis" : { "title" : "p_{T} pull", "nBins" : "100", "low" : "-10.0", "high" : "+10.0" }
},
"pullHelper_z0sin_vs_$TRKTAG_eta" : {
    "type" : "TH2F",
    "xAxis" : { "title" : "$TRKTYPE #eta", "nBins" : "64", "low" : "-$ETAMAX", "high" : "+$ETAMAX" },
    "yAxis" : { "title" : "z_{0}sin#theta pull", "nBins" : "100", "low" : "-10.0", "high" : "+10.0" }
},
"pullHelper_eta_vs_$TRKTAG_eta" : {
    "type" : "TH2F",
    "xAxis" : { "title" : "$TRKTYPE #eta", "nBins" : "64", "low" : "-$ETAMAX", "high" : "+$ETAMAX" },
    "yAxis" : { "title" : "#eta pull", "nBins" : "100", "low" : "-$ETAMAX", "high" : "$ETAMAX" }
},
"pullHelper_d0_vs_$TRKTAG_pt" : {
    "type" : "TH2F",
    "xAxis" : { "title" : "$TRKTYPE p_{T} [GeV]", "nBins" : "49", "low" : "0.745", "high" : "1000.0", "doLogLinBins" : "true" },
    "yAxis" : { "title" : "d_{0} pull", "nBins" : "100", "low" : "-10.0", "high" : "+10.0" }
},
"pullHelper_z0_vs_$TRKTAG_pt" : {
    "type" : "TH2F",
    "xAxis" : { "title" : "$TRKTYPE p_{T} [GeV]", "nBins" : "49", "low" : "0.745", "high" : "1000.0", "doLogLinBins" : "true" },
    "yAxis" : { "title" : "z_{0} pull", "nBins" : "100", "low" : "-10.0", "high" : "+10.0" }
},
"pullHelper_qoverp_vs_$TRKTAG_pt" : {
    "type" : "TH2F",
    "xAxis" : { "title" : "$TRKTYPE p_{T} [GeV]", "nBins" : "49", "low" : "0.745", "high" : "1000.0", "doLogLinBins" : "true" },
    "yAxis" : { "title" : "q/p pull", "nBins" : "100", "low" : "-10.0", "high" : "+10.0" }
},
"pullHelper_ptqopt_vs_$TRKTAG_pt" : {
    "type" : "TH2F",
    "xAxis" : { "title" : "$TRKTYPE p_{T} [GeV]", "nBins" : "49", "low" : "0.745", "high" : "1000.0", "doLogLinBins" : "true" },
    "yAxis" : { "title" : "q/p_{T} pull", "nBins" : "100", "low" : "-10.0", "high" : "+10.0" }
},
"pullHelper_theta_vs_$TRKTAG_pt" : {
    "type" : "TH2F",
    "xAxis" : { "title" : "$TRKTYPE p_{T} [GeV]", "nBins" : "49", "low" : "0.745", "high" : "1000.0", "doLogLinBins" : "true" },
    "yAxis" : { "title" : "#theta pull", "nBins" : "100", "low" : "-10.0", "high" : "+10.0" }
},
"pullHelper_phi_vs_$TRKTAG_pt" : {
    "type" : "TH2F",
    "xAxis" : { "title" : "$TRKTYPE p_{T} [GeV]", "nBins" : "49", "low" : "0.745", "high" : "1000.0", "doLogLinBins" : "true" },
    "yAxis" : { "title" : "#phi pull", "nBins" : "100", "low" : "-10.0", "high" : "+10.0" }
},
"pullHelper_pt_vs_$TRKTAG_pt" : {
    "type" : "TH2F",
    "xAxis" : { "title" : "$TRKTYPE p_{T} [GeV]", "nBins" : "49", "low" : "0.745", "high" : "1000.0", "doLogLinBins" : "true" },
    "yAxis" : { "title" : "p_{T} pull", "nBins" : "100", "low" : "-10.0", "high" : "+10.0" }
},
"pullHelper_z0sin_vs_$TRKTAG_pt" : {
    "type" : "TH2F",
    "xAxis" : { "title" : "$TRKTYPE p_{T} [GeV]", "nBins" : "49", "low" : "0.745", "high" : "1000.0", "doLogLinBins" : "true" },
    "yAxis" : { "title" : "z_{0}sin#theta pull", "nBins" : "100", "low" : "-10.0", "high" : "+10.0" }
},
"pullHelper_eta_vs_$TRKTAG_pt" : {
    "type" : "TH2F",
    "xAxis" : { "title" : "$TRKTYPE p_{T} [GeV]", "nBins" : "49", "low" : "0.745", "high" : "1000.0", "doLogLinBins" : "true" },
    "yAxis" : { "title" : "#eta pull", "nBins" : "100", "low" : "-$ETAMAX", "high" : "$ETAMAX" }
},
"corr_$TESTTAG_vs_$REFTAG_pt" : {
    "type" : "TH2F",
    "xAxis" : { "title" : "$REFTYPE p_{T} [GeV]", "nBins" : "100", "low" : "0", "high" : "100" },
    "yAxis" : { "title" : "$TESTTYPE p_{T} [GeV]", "nBins" : "100", "low" : "0", "high" : "100" }
},
"corr_$TESTTAG_vs_$REFTAG_qoverp" : {
    "type" : "TH2F",
    "xAxis" : { "title" : "$REFTYPE q/p [1/GeV]", "nBins" : "100", "low" : "-2", "high" : "2" },
    "yAxis" : { "title" : "$TESTTYPE q/p [1/GeV]", "nBins" : "100", "low" : "-2", "high" : "2" }
},
"corr_$TESTTAG_vs_$REFTAG_ptqopt" : {
    "type" : "TH2F",
    "xAxis" : { "title" : "$REFTYPE q/pT [1/GeV]", "nBins" : "100", "low" : "-2", "high" : "2" },
    "yAxis" : { "title" : "$TESTTYPE q/pT [1/GeV]", "nBins" : "100", "low" : "-2", "high" : "2" }
},
"corr_$TESTTAG_vs_$REFTAG_theta" : {
    "type" : "TH2F",
    "xAxis" : { "title" : "$REFTYPE #theta", "nBins" : "100", "low" : "-3.2", "high" : "3.2" },
    "yAxis" : { "title" : "$TESTTYPE #theta", "nBins" : "100", "low" : "-3.2", "high" : "3.2" }
},
"corr_$TESTTAG_vs_$REFTAG_phi" : {
    "type" : "TH2F",
    "xAxis" : { "title" : "$REFTYPE #phi", "nBins" : "100", "low" : "-3.14", "high" : "3.14" },
    "yAxis" : { "title" : "$TESTTYPE #phi", "nBins" : "100", "low" : "-3.14", "high" : "3.14" }
},
"corr_$TESTTAG_vs_$REFTAG_d0" : {
    "type" : "TH2F",
    "xAxis" : { "title" : "$REFTYPE d_{0} [mm]", "nBins" : "100", "low" : "-20", "high" : "20" },
    "yAxis" : { "title" : "$TESTTYPE d_{0} [mm]", "nBins" : "100", "low" : "-20", "high" : "20" }
},
"corr_$TESTTAG_vs_$REFTAG_z0" : {
    "type" : "TH2F",
    "xAxis" : { "title" : "$REFTYPE z_{0} [mm]", "nBins" : "100", "low" : "-20", "high" : "20" },
    "yAxis" : { "title" : "$TESTTYPE z_{0} [mm]", "nBins" : "100", "low" : "-20", "high" : "20" }
},
"corr_$TESTTAG_vs_$REFTAG_z0sin" : {
    "type" : "TH2F",
    "xAxis" : { "title" : "$REFTYPE z_{0}sin(#theta) [mm]", "nBins" : "100", "low" : "-20", "high" : "20" },
    "yAxis" : { "title" : "$TESTTYPE z_{0}sin(#theta) [mm]", "nBins" : "100", "low" : "-20", "high" : "20" }
},
"corr_$TESTTAG_vs_$REFTAG_eta" : {
    "type" : "TH2F",
    "xAxis" : { "title" : "$REFTYPE #eta", "nBins" : "100", "low" : "-$ETAMAX", "high" : "$ETAMAX" },
    "yAxis" : { "title" : "$TESTTYPE #eta", "nBins" : "100", "low" : "-$ETAMAX", "high" : "$ETAMAX" }
}
}
