54     1083   1140   BEE1A02  302
55     1084   1141   BEE1A04  302
56     1085   1142   BEE1A06  302
57     1086   1143   BEE1A08  302
58     1087   1144   BEE1A10  302
59     1088   1145   BEE1A12  302
60     1089   1146   BEE1A14  302
61     1090   1147   BEE1A16  302
62     494    1002   BEE1C02  303
63     495    1003   BEE1C04  303
64     496    1004   BEE1C06  303
65     497    1005   BEE1C08  303
66     498    1006   BEE1C10  303
67     499    1007   BEE1C12  303
68     500    1008   BEE1C14  303
69     501    1009   BEE1C16  303
70     1091   1148   BEE2A02  302
71     1092   1149   BEE2A04  302
72     1093   1150   BEE2A06  302
73     1094   1151   BEE2A08  302
74     1095   1152   BEE2A10  302
75     1096   1153   BEE2A12  302
76     1097   1154   BEE2A14  302
77     1098   1155   BEE2A16  302
78     502    1010   BEE2C02  303
79     503    1011   BEE2C04  303
80     504    1012   BEE2C06  303
81     505    1013   BEE2C08  303
82     506    1014   BEE2C10  303
83     507    1015   BEE2C12  303
84     508    1016   BEE2C14  303
85     509    1017   BEE2C16  303
86     535    711    BIL1A01  302
87     536    712    BIL1A03  302
88     537    713    BIL1A05  302
89     538    714    BIL1A07  302
90     539    715    BIL1A09  302
91     540    716    BIL1A13  302
1      541    1018   BIL1C01  303
2      542    1019   BIL1C03  303
3      543    21     BIL1C05  303
92     544    22     BIL1C07  303
93     545    23     BIL1C09  303
94     546    1020   BIL1C13  303
95     547    717    BIL2A01  302
96     548    718    BIL2A03  302
97     549    719    BIL2A05  302
98     550    720    BIL2A07  302
99     551    721    BIL2A09  302
100    552    722    BIL2A13  302
4      553    1021   BIL2C01  303
5      554    1022   BIL2C03  303
6      555    24     BIL2C05  303
101    556    25     BIL2C07  303
102    557    26     BIL2C09  303
103    558    1023   BIL2C13  303
104    559    1024   BIL3A01  302
105    560    723    BIL3A03  302
106    561    724    BIL3A05  302
107    562    725    BIL3A07  302
108    563    726    BIL3A09  302
109    564    727    BIL3A13  302
7      565    1025   BIL3C01  303
8      566    1026   BIL3C03  303
9      567    27     BIL3C05  303
110    568    28     BIL3C07  303
111    569    29     BIL3C09  303
112    570    1027   BIL3C13  303
113    571    1132   BIL4A01  302
114    572    728    BIL4A03  302
115    573    729    BIL4A05  302
116    574    730    BIL4A07  302
117    575    731    BIL4A09  302
118    576    732    BIL4A13  302
10     577    1133   BIL4C01  303
11     578    1028   BIL4C03  303
12     579    30     BIL4C05  303
119    580    31     BIL4C07  303
120    581    32     BIL4C09  303
121    582    1029   BIL4C13  303
122    583    1134   BIL5A01  302
123    584    733    BIL5A03  302
124    585    734    BIL5A05  302
125    586    735    BIL5A07  302
126    587    736    BIL5A09  302
127    588    1030   BIL5A13  302
13     589    1135   BIL5C01  303
14     590    1031   BIL5C03  303
15     591    33     BIL5C05  303
128    592    34     BIL5C07  303
129    593    35     BIL5C09  303
130    594    1032   BIL5C13  303
131    595    1136   BIL6A01  302
132    596    737    BIL6A03  302
133    597    738    BIL6A05  302
134    598    739    BIL6A07  302
135    599    740    BIL6A09  302
136    600    1137   BIL6A13  302
16     601    1138   BIL6C01  303
17     602    1033   BIL6C03  303
18     603    36     BIL6C05  303
137    604    37     BIL6C07  303
138    605    38     BIL6C09  303
139    606    1139   BIL6C13  303
140    607    741    BIM1A11  302
141    608    742    BIM1A15  302
142    609    39     BIM1C11  303
19     610    1034   BIM1C15  303
143    611    743    BIM2A11  302
144    612    744    BIM2A15  302
145    613    40     BIM2C11  303
20     614    1035   BIM2C15  303
146    615    745    BIM3A11  302
147    616    746    BIM3A15  302
148    617    41     BIM3C11  303
21     618    1036   BIM3C15  303
149    619    747    BIM4A11  302
150    620    748    BIM4A15  302
151    621    42     BIM4C11  303
22     622    1037   BIM4C15  303
152    623    749    BIM5A11  302
153    624    750    BIM5A15  302
154    625    43     BIM5C11  303
23     626    1038   BIM5C15  303
155    627    751    BIR1A11  302
156    628    752    BIR1A15  302
157    629    44     BIR1C11  303
24     630    1039   BIR1C15  303
158    631    753    BIR2A11  302
159    632    754    BIR2A15  302
160    633    45     BIR2C11  303
25     634    1040   BIR2C15  303
161    635    755    BIR3A11  302
162    636    756    BIR3A15  302
163    637    46     BIR3C11  303
26     638    1041   BIR3C15  303
164    639    757    BIR4A11  302
165    640    758    BIR4A15  302
166    641    47     BIR4C11  303
27     642    1042   BIR4C15  303
167    643    759    BIR5A11  302
168    644    760    BIR5A15  302
169    645    48     BIR5C11  303
28     646    1043   BIR5C15  303
170    647    761    BIR6A11  302
171    648    762    BIR6A15  302
172    649    49     BIR6C11  303
29     650    1044   BIR6C15  303
173    651    763    BIS1A02  302
174    652    764    BIS1A04  302
175    653    765    BIS1A06  302
176    654    766    BIS1A08  302
177    655    767    BIS1A10  302
178    656    768    BIS1A12  302
179    657    769    BIS1A14  302
180    658    770    BIS1A16  302
30     659    1045   BIS1C02  303
31     660    1046   BIS1C04  303
181    661    50     BIS1C06  303
182    662    51     BIS1C08  303
183    663    52     BIS1C10  303
184    664    53     BIS1C12  303
32     665    1047   BIS1C14  303
33     666    1048   BIS1C16  303
185    667    771    BIS2A02  302
186    668    772    BIS2A04  302
187    669    773    BIS2A06  302
188    670    774    BIS2A08  302
189    671    775    BIS2A10  302
190    672    776    BIS2A12  302
191    673    777    BIS2A14  302
192    674    778    BIS2A16  302
34     675    1049   BIS2C02  303
35     676    1050   BIS2C04  303
193    677    54     BIS2C06  303
194    678    55     BIS2C08  303
195    679    56     BIS2C10  303
196    680    57     BIS2C12  303
36     681    1051   BIS2C14  303
37     682    1052   BIS2C16  303
197    683    779    BIS3A02  302
198    684    780    BIS3A04  302
199    685    781    BIS3A06  302
200    686    782    BIS3A08  302
201    687    783    BIS3A10  302
202    688    784    BIS3A12  302
203    689    785    BIS3A14  302
204    690    786    BIS3A16  302
38     691    1053   BIS3C02  303
39     692    1054   BIS3C04  303
205    693    58     BIS3C06  303
206    694    59     BIS3C08  303
207    695    60     BIS3C10  303
208    696    61     BIS3C12  303
40     697    1055   BIS3C14  303
41     698    1056   BIS3C16  303
209    699    787    BIS4A02  302
210    700    788    BIS4A04  302
211    701    789    BIS4A06  302
212    702    790    BIS4A08  302
213    703    791    BIS4A10  302
214    704    792    BIS4A12  302
215    705    793    BIS4A14  302
216    706    794    BIS4A16  302
42     707    1057   BIS4C02  303
43     708    1058   BIS4C04  303
217    709    62     BIS4C06  303
218    710    63     BIS4C08  303
219    711    64     BIS4C10  303
220    712    65     BIS4C12  303
44     713    1059   BIS4C14  303
45     714    1060   BIS4C16  303
221    715    795    BIS5A02  302
222    716    796    BIS5A04  302
223    717    797    BIS5A06  302
224    718    798    BIS5A08  302
225    719    799    BIS5A10  302
226    720    800    BIS5A12  302
227    721    801    BIS5A14  302
228    722    802    BIS5A16  302
46     723    1061   BIS5C02  303
47     724    1062   BIS5C04  303
229    725    66     BIS5C06  303
230    726    67     BIS5C08  303
231    727    68     BIS5C10  303
232    728    69     BIS5C12  303
48     729    1063   BIS5C14  303
49     730    1064   BIS5C16  303
233    731    803    BIS6A02  302
234    732    804    BIS6A04  302
235    733    805    BIS6A06  302
236    734    806    BIS6A08  302
237    735    807    BIS6A10  302
238    736    808    BIS6A12  302
239    737    809    BIS6A14  302
240    738    810    BIS6A16  302
50     739    1065   BIS6C02  303
51     740    1066   BIS6C04  303
241    741    70     BIS6C06  303
242    742    71     BIS6C08  303
243    743    72     BIS6C10  303
244    744    73     BIS6C12  303
52     745    1067   BIS6C14  303
53     746    1068   BIS6C16  303
253    18     1069   BIS7C02  303
254    19     1070   BIS7C04  303
255    20     82     BIS7C06  303
256    21     83     BIS7C08  303
257    22     84     BIS7C10  303
258    23     85     BIS7C12  303
259    24     1071   BIS7C14  303
260    25     1072   BIS7C16  303
269    34     1073   BIS8C02  303
270    35     1074   BIS8C04  303
271    36     94     BIS8C06  303
272    37     95     BIS8C08  303
273    38     96     BIS8C10  303
274    39     97     BIS8C12  303
275    40     1075   BIS8C14  303
276    41     1076   BIS8C16  303
277    747    1077   BME4A13  302
278    748    1078   BME4C13  303
277    747    1079   BME5A13  302
278    748    1080   BME5C13  303
279    749    811    BMF1A12  302
280    750    812    BMF1A14  302
281    751    98     BMF1C12  303
282    752    1      BMF1C14  303
283    753    813    BMF2A12  302
284    754    814    BMF2A14  302
285    755    99     BMF2C12  303
286    756    2      BMF2C14  303
287    757    815    BMF3A12  302
288    758    816    BMF3A14  302
289    759    100    BMF3C12  303
290    760    3      BMF3C14  303
291    761    817    BML1A01  302
292    762    818    BML1A03  302
293    763    819    BML1A05  302
294    764    820    BML1A07  302
295    765    821    BML1A09  302
296    766    822    BML1A11  302
297    767    823    BML1A13  302
298    768    824    BML1A15  302
299    769    101    BML1C01  303
300    770    102    BML1C03  303
301    771    103    BML1C05  303
302    772    104    BML1C07  303
303    773    105    BML1C09  303
304    774    106    BML1C11  303
305    775    4      BML1C13  303
306    776    5      BML1C15  303
307    777    825    BML2A01  302
308    778    826    BML2A03  302
309    779    827    BML2A05  302
310    780    828    BML2A07  302
311    781    829    BML2A09  302
312    782    830    BML2A11  302
313    783    831    BML2A13  302
314    784    832    BML2A15  302
315    785    107    BML2C01  303
316    786    108    BML2C03  303
317    787    109    BML2C05  303
318    788    110    BML2C07  303
319    789    111    BML2C09  303
320    790    112    BML2C11  303
321    791    6      BML2C13  303
322    792    7      BML2C15  303
323    793    833    BML3A01  302
324    794    834    BML3A03  302
325    795    835    BML3A05  302
326    796    836    BML3A07  302
327    797    837    BML3A09  302
328    798    838    BML3A11  302
329    799    839    BML3A13  302
330    800    840    BML3A15  302
331    801    113    BML3C01  303
332    802    114    BML3C03  303
333    803    115    BML3C05  303
334    804    116    BML3C07  303
335    805    117    BML3C09  303
336    806    118    BML3C11  303
337    807    8      BML3C13  303
338    808    9      BML3C15  303
339    809    841    BML4A01  302
340    810    842    BML4A03  302
341    811    843    BML4A05  302
342    812    844    BML4A07  302
343    813    845    BML4A09  302
344    814    846    BML4A11  302
345    815    847    BML4A15  302
346    816    119    BML4C01  303
347    817    120    BML4C03  303
348    818    121    BML4C05  303
349    819    122    BML4C07  303
350    820    123    BML4C09  303
351    821    124    BML4C11  303
352    822    10     BML4C15  303
353    823    848    BML5A01  302
354    824    849    BML5A03  302
355    825    850    BML5A05  302
356    826    851    BML5A07  302
357    827    852    BML5A09  302
358    828    853    BML5A11  302
359    829    854    BML5A13  302
360    830    855    BML5A15  302
361    831    125    BML5C01  303
362    832    126    BML5C03  303
363    833    127    BML5C05  303
364    834    128    BML5C07  303
365    835    129    BML5C09  303
366    836    130    BML5C11  303
367    837    11     BML5C13  303
368    838    12     BML5C15  303
369    839    856    BML6A01  302
370    840    857    BML6A03  302
371    841    858    BML6A05  302
372    842    859    BML6A07  302
373    843    860    BML6A09  302
374    844    861    BML6A11  302
375    845    862    BML6A13  302
376    846    863    BML6A15  302
377    847    131    BML6C01  303
378    848    132    BML6C03  303
379    849    133    BML6C05  303
380    850    134    BML6C07  303
381    851    135    BML6C09  303
382    852    136    BML6C11  303
383    853    13     BML6C13  303
384    854    14     BML6C15  303
385    855    864    BMS1A02  302
386    856    865    BMS1A04  302
387    857    866    BMS1A06  302
388    858    867    BMS1A08  302
389    859    868    BMS1A10  302
390    860    869    BMS1A16  302
391    861    137    BMS1C02  303
392    862    138    BMS1C04  303
393    863    139    BMS1C06  303
394    864    140    BMS1C08  303
395    865    141    BMS1C10  303
396    866    15     BMS1C16  303
397    867    870    BMS2A02  302
398    868    871    BMS2A04  302
399    869    872    BMS2A06  302
400    870    873    BMS2A08  302
401    871    874    BMS2A10  302
402    872    875    BMS2A16  302
403    873    142    BMS2C02  303
404    874    143    BMS2C04  303
405    875    144    BMS2C06  303
406    876    145    BMS2C08  303
407    877    146    BMS2C10  303
408    878    16     BMS2C16  303
409    879    876    BMS3A02  302
410    880    877    BMS3A04  302
411    881    878    BMS3A06  302
412    882    879    BMS3A08  302
413    883    880    BMS3A10  302
414    884    881    BMS3A16  302
415    885    147    BMS3C02  303
416    886    148    BMS3C04  303
417    887    149    BMS3C06  303
418    888    150    BMS3C08  303
419    889    151    BMS3C10  303
420    890    17     BMS3C16  303
421    891    882    BMS4A02  302
422    892    883    BMS4A04  302
423    893    884    BMS4A06  302
424    894    885    BMS4A08  302
425    895    886    BMS4A10  302
426    896    887    BMS4A16  302
427    897    152    BMS4C02  303
428    898    153    BMS4C04  303
429    899    154    BMS4C06  303
430    900    155    BMS4C08  303
431    901    156    BMS4C10  303
432    902    18     BMS4C16  303
433    903    888    BMS5A02  302
434    904    889    BMS5A04  302
435    905    890    BMS5A06  302
436    906    891    BMS5A08  302
437    907    892    BMS5A10  302
438    908    893    BMS5A16  302
439    909    157    BMS5C02  303
440    910    158    BMS5C04  303
441    911    159    BMS5C06  303
442    912    160    BMS5C08  303
443    913    161    BMS5C10  303
444    914    19     BMS5C16  303
445    915    894    BMS6A02  302
446    916    895    BMS6A04  302
447    917    896    BMS6A06  302
448    918    897    BMS6A08  302
449    919    898    BMS6A10  302
450    920    899    BMS6A16  302
451    921    162    BMS6C02  303
452    922    163    BMS6C04  303
453    923    164    BMS6C06  303
454    924    165    BMS6C08  303
455    925    166    BMS6C10  303
456    926    20     BMS6C16  303
457    927    1081   BOE3A13  302
458    928    1082   BOE3C13  303
459    929    900    BOF1A12  302
460    930    901    BOF1A14  302
461    931    167    BOF1C12  303
462    932    168    BOF1C14  303
463    933    902    BOF3A12  302
464    934    903    BOF3A14  302
465    935    169    BOF3C12  303
466    936    170    BOF3C14  303
467    937    904    BOF5A12  302
468    938    905    BOF5A14  302
469    939    171    BOF5C12  303
470    940    172    BOF5C14  303
471    941    906    BOF7A12  302
472    942    907    BOF7A14  302
473    943    173    BOF7C12  303
474    944    174    BOF7C14  303
475    945    908    BOG0A12  302
476    946    909    BOG0A14  302
477    947    910    BOG2A12  302
478    948    911    BOG2A14  302
479    949    175    BOG2C12  303
480    950    176    BOG2C14  303
481    951    912    BOG4A12  302
482    952    913    BOG4A14  302
483    953    177    BOG4C12  303
484    954    178    BOG4C14  303
485    955    914    BOG6A12  302
486    956    915    BOG6A14  302
487    957    179    BOG6C12  303
488    958    180    BOG6C14  303
489    959    916    BOG8A12  302
490    960    917    BOG8A14  302
491    961    181    BOG8C12  303
492    962    182    BOG8C14  303
493    963    918    BOL1A01  302
494    964    919    BOL1A03  302
495    1107   920    BOL1A05  302
496    1108   921    BOL1A07  302
497    965    922    BOL1A09  302
498    966    923    BOL1A11  302
499    967    924    BOL1A13  302
500    968    925    BOL1A15  302
501    969    183    BOL1C01  303
502    970    184    BOL1C03  303
503    1109   185    BOL1C05  303
504    1110   186    BOL1C07  303
505    971    187    BOL1C09  303
506    972    188    BOL1C11  303
507    973    189    BOL1C13  303
508    974    190    BOL1C15  303
509    975    926    BOL2A01  302
510    976    927    BOL2A03  302
511    1111   928    BOL2A05  302
512    1112   929    BOL2A07  302
513    977    930    BOL2A09  302
514    978    931    BOL2A11  302
515    979    932    BOL2A13  302
516    980    933    BOL2A15  302
517    981    191    BOL2C01  303
518    982    192    BOL2C03  303
519    1113   193    BOL2C05  303
520    1114   194    BOL2C07  303
521    983    195    BOL2C09  303
522    984    196    BOL2C11  303
523    985    197    BOL2C13  303
524    986    198    BOL2C15  303
525    987    934    BOL3A01  302
526    988    935    BOL3A03  302
527    1115   936    BOL3A05  302
528    1116   937    BOL3A07  302
529    989    938    BOL3A09  302
530    990    939    BOL3A11  302
531    991    940    BOL3A13  302
532    992    941    BOL3A15  302
533    993    199    BOL3C01  303
534    994    200    BOL3C03  303
535    1117   201    BOL3C05  303
536    1118   202    BOL3C07  303
537    995    203    BOL3C09  303
538    996    204    BOL3C11  303
539    997    205    BOL3C13  303
540    998    206    BOL3C15  303
541    999    942    BOL4A01  302
542    1000   943    BOL4A03  302
543    1119   944    BOL4A05  302
544    1120   945    BOL4A07  302
545    1001   946    BOL4A09  302
546    1002   947    BOL4A11  302
547    1003   948    BOL4A13  302
548    1004   949    BOL4A15  302
549    1005   207    BOL4C01  303
550    1006   208    BOL4C03  303
551    1121   209    BOL4C05  303
552    1122   210    BOL4C07  303
553    1007   211    BOL4C09  303
554    1008   212    BOL4C11  303
555    1009   213    BOL4C13  303
556    1010   214    BOL4C15  303
557    1011   950    BOL5A01  302
558    1012   951    BOL5A03  302
559    1123   952    BOL5A05  302
560    1124   953    BOL5A07  302
561    1013   954    BOL5A09  302
562    1014   955    BOL5A11  302
563    1015   956    BOL5A13  302
564    1016   957    BOL5A15  302
565    1017   215    BOL5C01  303
566    1018   216    BOL5C03  303
567    1125   217    BOL5C05  303
568    1126   218    BOL5C07  303
569    1019   219    BOL5C09  303
570    1020   220    BOL5C11  303
571    1021   221    BOL5C13  303
572    1022   222    BOL5C15  303
573    1023   958    BOL6A01  302
574    1024   959    BOL6A03  302
575    1127   960    BOL6A05  302
576    1128   961    BOL6A07  302
577    1025   962    BOL6A09  302
578    1026   963    BOL6A11  302
579    1027   964    BOL6A13  302
580    1028   965    BOL6A15  302
581    1029   223    BOL6C01  303
582    1030   224    BOL6C03  303
583    1129   225    BOL6C05  303
584    1130   226    BOL6C07  303
585    1031   227    BOL6C09  303
586    1032   228    BOL6C11  303
587    1033   229    BOL6C13  303
588    1034   230    BOL6C15  303
589    1035   966    BOS1A02  302
590    1036   967    BOS1A04  302
591    1131   968    BOS1A06  302
592    1132   969    BOS1A08  302
593    1037   970    BOS1A10  302
594    1038   971    BOS1A16  302
595    1039   231    BOS1C02  303
596    1040   232    BOS1C04  303
597    1133   233    BOS1C06  303
598    1134   234    BOS1C08  303
599    1041   235    BOS1C10  303
600    1042   236    BOS1C16  303
601    1043   972    BOS2A02  302
602    1044   973    BOS2A04  302
603    1135   974    BOS2A06  302
604    1136   975    BOS2A08  302
605    1045   976    BOS2A10  302
606    1046   977    BOS2A16  302
607    1047   237    BOS2C02  303
608    1048   238    BOS2C04  303
609    1137   239    BOS2C06  303
610    1138   240    BOS2C08  303
611    1049   241    BOS2C10  303
612    1050   242    BOS2C16  303
613    1051   978    BOS3A02  302
614    1052   979    BOS3A04  302
615    1139   980    BOS3A06  302
616    1140   981    BOS3A08  302
617    1053   982    BOS3A10  302
618    1054   983    BOS3A16  302
619    1055   243    BOS3C02  303
620    1056   244    BOS3C04  303
621    1141   245    BOS3C06  303
622    1142   246    BOS3C08  303
623    1057   247    BOS3C10  303
624    1058   248    BOS3C16  303
625    1059   984    BOS4A02  302
626    1060   985    BOS4A04  302
627    1143   986    BOS4A06  302
628    1144   987    BOS4A08  302
629    1061   988    BOS4A10  302
630    1062   989    BOS4A16  302
631    1063   249    BOS4C02  303
632    1064   250    BOS4C04  303
633    1145   251    BOS4C06  303
634    1146   252    BOS4C08  303
635    1065   253    BOS4C10  303
636    1066   254    BOS4C16  303
637    1067   990    BOS5A02  302
638    1068   991    BOS5A04  302
639    1147   992    BOS5A06  302
640    1148   993    BOS5A08  302
641    1069   994    BOS5A10  302
642    1070   995    BOS5A16  302
643    1071   255    BOS5C02  303
644    1072   256    BOS5C04  303
645    1149   257    BOS5C06  303
646    1150   258    BOS5C08  303
647    1073   259    BOS5C10  303
648    1074   260    BOS5C16  303
649    1075   996    BOS6A02  302
650    1076   997    BOS6A04  302
651    1151   998    BOS6A06  302
652    1152   999    BOS6A08  302
653    1077   1000   BOS6A10  302
654    1078   1001   BOS6A16  302
655    1079   261    BOS6C02  303
656    1080   262    BOS6C04  303
657    1153   263    BOS6C06  303
658    1154   264    BOS6C08  303
659    1081   265    BOS6C10  303
660    1082   266    BOS6C16  303
661    42     267    EEL1A01  304
662    43     268    EEL1A03  304
663    44     269    EEL1A07  304
664    45     270    EEL1A09  304
665    46     271    EEL1A11  304
666    47     272    EEL1A13  304
667    48     273    EEL1A15  304
668    49     274    EEL1C01  305
669    50     275    EEL1C03  305
670    51     276    EEL1C07  305
671    52     277    EEL1C09  305
672    53     278    EEL1C11  305
673    54     279    EEL1C13  305
674    55     280    EEL1C15  305
675    56     281    EEL2A01  304
676    57     282    EEL2A03  304
677    1      1156   EEL2A05  304
678    58     283    EEL2A07  304
679    59     284    EEL2A09  304
680    60     285    EEL2A11  304
681    61     286    EEL2A13  304
682    62     287    EEL2A15  304
683    63     288    EEL2C01  305
684    64     289    EEL2C03  305
685    510    1083   EEL2C05  305
686    65     290    EEL2C07  305
687    66     291    EEL2C09  305
688    67     292    EEL2C11  305
689    68     293    EEL2C13  305
690    69     294    EEL2C15  305
691    70     295    EES1A02  304
692    71     296    EES1A04  304
693    72     297    EES1A06  304
694    73     298    EES1A08  304
695    74     299    EES1A10  304
696    75     300    EES1A12  304
697    76     301    EES1A14  304
698    77     302    EES1A16  304
699    78     303    EES1C02  305
700    79     304    EES1C04  305
701    80     305    EES1C06  305
702    81     306    EES1C08  305
703    82     307    EES1C10  305
704    83     308    EES1C12  305
705    84     309    EES1C14  305
706    85     310    EES1C16  305
707    86     311    EES2A02  304
708    87     312    EES2A04  304
709    88     313    EES2A06  304
710    89     314    EES2A08  304
711    90     315    EES2A10  304
712    91     316    EES2A12  304
713    92     317    EES2A14  304
714    93     318    EES2A16  304
715    94     319    EES2C02  305
716    95     320    EES2C04  305
717    96     321    EES2C06  305
718    97     322    EES2C08  305
719    98     323    EES2C10  305
720    99     324    EES2C12  305
721    100    325    EES2C14  305
722    101    326    EES2C16  305
755    118    335    EIL4A01  304
756    119    336    EIL4A03  304
757    120    337    EIL4A05  304
758    121    338    EIL4A07  304
759    122    339    EIL4A09  304
760    123    340    EIL4A11  304
761    124    341    EIL4A13  304
762    125    342    EIL4A15  304
763    126    343    EIL4C01  305
764    127    344    EIL4C03  305
765    128    345    EIL4C05  305
766    129    346    EIL4C07  305
767    130    347    EIL4C09  305
768    131    348    EIL4C11  305
769    132    349    EIL4C13  305
770    133    350    EIL4C15  305
803    142    359    EML1A01  304
804    143    360    EML1A03  304
805    144    361    EML1A05  304
806    145    362    EML1A07  304
807    146    363    EML1A09  304
808    147    364    EML1A11  304
809    148    365    EML1A13  304
810    149    366    EML1A15  304
811    150    367    EML1C01  305
812    151    368    EML1C03  305
813    152    369    EML1C05  305
814    153    370    EML1C07  305
815    154    371    EML1C09  305
816    155    372    EML1C11  305
817    156    373    EML1C13  305
818    157    374    EML1C15  305
819    158    375    EML2A01  304
820    159    376    EML2A03  304
821    160    377    EML2A05  304
822    161    378    EML2A07  304
823    162    379    EML2A09  304
824    163    380    EML2A11  304
825    164    381    EML2A13  304
826    165    382    EML2A15  304
827    166    383    EML2C01  305
828    167    384    EML2C03  305
829    168    385    EML2C05  305
830    169    386    EML2C07  305
831    170    387    EML2C09  305
832    171    388    EML2C11  305
833    172    389    EML2C13  305
834    173    390    EML2C15  305
835    174    391    EML3A01  304
836    175    392    EML3A03  304
837    176    393    EML3A05  304
838    177    394    EML3A07  304
839    178    395    EML3A09  304
840    179    396    EML3A11  304
841    180    397    EML3A13  304
842    181    398    EML3A15  304
843    182    399    EML3C01  305
844    183    400    EML3C03  305
845    184    401    EML3C05  305
846    185    402    EML3C07  305
847    186    403    EML3C09  305
848    187    404    EML3C11  305
849    188    405    EML3C13  305
850    189    406    EML3C15  305
851    190    407    EML4A01  304
852    191    408    EML4A03  304
853    192    409    EML4A05  304
854    193    410    EML4A07  304
855    194    411    EML4A09  304
856    195    412    EML4A11  304
857    196    413    EML4A13  304
858    197    414    EML4A15  304
859    198    415    EML4C01  305
860    199    416    EML4C03  305
861    200    417    EML4C05  305
862    201    418    EML4C07  305
863    202    419    EML4C09  305
864    203    420    EML4C11  305
865    204    421    EML4C13  305
866    205    422    EML4C15  305
867    206    423    EML5A01  304
868    207    424    EML5A03  304
869    208    425    EML5A05  304
870    209    426    EML5A07  304
871    210    427    EML5A09  304
872    211    428    EML5A11  304
873    212    429    EML5A13  304
874    213    430    EML5A15  304
875    214    431    EML5C01  305
876    215    432    EML5C03  305
877    216    433    EML5C05  305
878    217    434    EML5C07  305
879    218    435    EML5C09  305
880    219    436    EML5C11  305
881    220    437    EML5C13  305
882    221    438    EML5C15  305
883    222    439    EMS1A02  304
884    223    440    EMS1A04  304
885    224    441    EMS1A06  304
886    225    442    EMS1A08  304
887    226    443    EMS1A10  304
888    227    444    EMS1A12  304
889    228    445    EMS1A14  304
890    229    446    EMS1A16  304
891    230    447    EMS1C02  305
892    231    448    EMS1C04  305
893    232    449    EMS1C06  305
894    233    450    EMS1C08  305
895    234    451    EMS1C10  305
896    235    452    EMS1C12  305
897    236    453    EMS1C14  305
898    237    454    EMS1C16  305
899    238    455    EMS2A02  304
900    239    456    EMS2A04  304
901    240    457    EMS2A06  304
902    241    458    EMS2A08  304
903    242    459    EMS2A10  304
904    243    460    EMS2A12  304
905    244    461    EMS2A14  304
906    245    462    EMS2A16  304
907    246    463    EMS2C02  305
908    247    464    EMS2C04  305
909    248    465    EMS2C06  305
910    249    466    EMS2C08  305
911    250    467    EMS2C10  305
912    251    468    EMS2C12  305
913    252    469    EMS2C14  305
914    253    470    EMS2C16  305
915    254    471    EMS3A02  304
916    255    472    EMS3A04  304
917    256    473    EMS3A06  304
918    257    474    EMS3A08  304
919    258    475    EMS3A10  304
920    259    476    EMS3A12  304
921    260    477    EMS3A14  304
922    261    478    EMS3A16  304
923    262    479    EMS3C02  305
924    263    480    EMS3C04  305
925    264    481    EMS3C06  305
926    265    482    EMS3C08  305
927    266    483    EMS3C10  305
928    267    484    EMS3C12  305
929    268    485    EMS3C14  305
930    269    486    EMS3C16  305
931    270    487    EMS4A02  304
932    271    488    EMS4A04  304
933    272    489    EMS4A06  304
934    273    490    EMS4A08  304
935    274    491    EMS4A10  304
936    275    492    EMS4A12  304
937    276    493    EMS4A14  304
938    277    494    EMS4A16  304
939    278    495    EMS4C02  305
940    279    496    EMS4C04  305
941    280    497    EMS4C06  305
942    281    498    EMS4C08  305
943    282    499    EMS4C10  305
944    283    500    EMS4C12  305
945    284    501    EMS4C14  305
946    285    502    EMS4C16  305
947    286    503    EMS5A02  304
948    287    504    EMS5A04  304
949    288    505    EMS5A06  304
950    289    506    EMS5A08  304
951    290    507    EMS5A10  304
952    291    508    EMS5A12  304
953    292    509    EMS5A14  304
954    293    510    EMS5A16  304
955    294    511    EMS5C02  305
956    295    512    EMS5C04  305
957    296    513    EMS5C06  305
958    297    514    EMS5C08  305
959    298    515    EMS5C10  305
960    299    516    EMS5C12  305
961    300    517    EMS5C14  305
962    301    518    EMS5C16  305
963    302    519    EOL1A01  304
964    303    520    EOL1A03  304
965    304    521    EOL1A05  304
966    305    522    EOL1A07  304
967    306    523    EOL1A09  304
968    307    524    EOL1A11  304
969    308    525    EOL1A13  304
970    309    526    EOL1A15  304
971    310    527    EOL1C01  305
972    311    528    EOL1C03  305
973    312    529    EOL1C05  305
974    313    530    EOL1C07  305
975    314    531    EOL1C09  305
976    315    532    EOL1C11  305
977    316    533    EOL1C13  305
978    317    534    EOL1C15  305
979    318    535    EOL2A01  304
980    319    536    EOL2A03  304
981    320    537    EOL2A05  304
982    321    538    EOL2A07  304
983    322    539    EOL2A09  304
984    323    540    EOL2A11  304
985    324    541    EOL2A13  304
986    325    542    EOL2A15  304
987    326    543    EOL2C01  305
988    327    544    EOL2C03  305
989    328    545    EOL2C05  305
990    329    546    EOL2C07  305
991    330    547    EOL2C09  305
992    331    548    EOL2C11  305
993    332    549    EOL2C13  305
994    333    550    EOL2C15  305
995    334    551    EOL3A01  304
996    335    552    EOL3A03  304
997    336    553    EOL3A05  304
998    337    554    EOL3A07  304
999    338    555    EOL3A09  304
1000   339    556    EOL3A11  304
1001   340    557    EOL3A13  304
1002   341    558    EOL3A15  304
1003   342    559    EOL3C01  305
1004   343    560    EOL3C03  305
1005   344    561    EOL3C05  305
1006   345    562    EOL3C07  305
1007   346    563    EOL3C09  305
1008   347    564    EOL3C11  305
1009   348    565    EOL3C13  305
1010   349    566    EOL3C15  305
1011   350    567    EOL4A01  304
1012   351    568    EOL4A03  304
1013   352    569    EOL4A05  304
1014   353    570    EOL4A07  304
1015   354    571    EOL4A09  304
1016   355    572    EOL4A11  304
1017   356    573    EOL4A13  304
1018   357    574    EOL4A15  304
1019   358    575    EOL4C01  305
1020   359    576    EOL4C03  305
1021   360    577    EOL4C05  305
1022   361    578    EOL4C07  305
1023   362    579    EOL4C09  305
1024   363    580    EOL4C11  305
1025   364    581    EOL4C13  305
1026   365    582    EOL4C15  305
1027   366    583    EOL5A01  304
1028   367    584    EOL5A03  304
1029   368    585    EOL5A05  304
1030   369    586    EOL5A07  304
1031   370    587    EOL5A09  304
1032   371    588    EOL5A11  304
1033   372    589    EOL5A13  304
1034   373    590    EOL5A15  304
1035   374    591    EOL5C01  305
1036   375    592    EOL5C03  305
1037   376    593    EOL5C05  305
1038   377    594    EOL5C07  305
1039   378    595    EOL5C09  305
1040   379    596    EOL5C11  305
1041   380    597    EOL5C13  305
1042   381    598    EOL5C15  305
1043   382    599    EOL6A01  304
1044   383    600    EOL6A03  304
1045   384    601    EOL6A05  304
1046   385    602    EOL6A07  304
1047   386    603    EOL6A09  304
1048   387    604    EOL6A11  304
1049   388    605    EOL6A13  304
1050   389    606    EOL6A15  304
1051   390    607    EOL6C01  305
1052   391    608    EOL6C03  305
1053   392    609    EOL6C05  305
1054   393    610    EOL6C07  305
1055   394    611    EOL6C09  305
1056   395    612    EOL6C11  305
1057   396    613    EOL6C13  305
1058   397    614    EOL6C15  305
1059   398    615    EOS1A02  304
1060   399    616    EOS1A04  304
1061   400    617    EOS1A06  304
1062   401    618    EOS1A08  304
1063   402    619    EOS1A10  304
1064   403    620    EOS1A12  304
1065   404    621    EOS1A14  304
1066   405    622    EOS1A16  304
1067   406    623    EOS1C02  305
1068   407    624    EOS1C04  305
1069   408    625    EOS1C06  305
1070   409    626    EOS1C08  305
1071   410    627    EOS1C10  305
1072   411    628    EOS1C12  305
1073   412    629    EOS1C14  305
1074   413    630    EOS1C16  305
1075   414    631    EOS2A02  304
1076   415    632    EOS2A04  304
1077   416    633    EOS2A06  304
1078   417    634    EOS2A08  304
1079   418    635    EOS2A10  304
1080   419    636    EOS2A12  304
1081   420    637    EOS2A14  304
1082   421    638    EOS2A16  304
1083   422    639    EOS2C02  305
1084   423    640    EOS2C04  305
1085   424    641    EOS2C06  305
1086   425    642    EOS2C08  305
1087   426    643    EOS2C10  305
1088   427    644    EOS2C12  305
1089   428    645    EOS2C14  305
1090   429    646    EOS2C16  305
1091   430    647    EOS3A02  304
1092   431    648    EOS3A04  304
1093   432    649    EOS3A06  304
1094   433    650    EOS3A08  304
1095   434    651    EOS3A10  304
1096   435    652    EOS3A12  304
1097   436    653    EOS3A14  304
1098   437    654    EOS3A16  304
1099   438    655    EOS3C02  305
1100   439    656    EOS3C04  305
1101   440    657    EOS3C06  305
1102   441    658    EOS3C08  305
1103   442    659    EOS3C10  305
1104   443    660    EOS3C12  305
1105   444    661    EOS3C14  305
1106   445    662    EOS3C16  305
1107   446    663    EOS4A02  304
1108   447    664    EOS4A04  304
1109   448    665    EOS4A06  304
1110   449    666    EOS4A08  304
1111   450    667    EOS4A10  304
1112   451    668    EOS4A12  304
1113   452    669    EOS4A14  304
1114   453    670    EOS4A16  304
1115   454    671    EOS4C02  305
1116   455    672    EOS4C04  305
1117   456    673    EOS4C06  305
1118   457    674    EOS4C08  305
1119   458    675    EOS4C10  305
1120   459    676    EOS4C12  305
1121   460    677    EOS4C14  305
1122   461    678    EOS4C16  305
1123   462    679    EOS5A02  304
1124   463    680    EOS5A04  304
1125   464    681    EOS5A06  304
1126   465    682    EOS5A08  304
1127   466    683    EOS5A10  304
1128   467    684    EOS5A12  304
1129   468    685    EOS5A14  304
1130   469    686    EOS5A16  304
1131   470    687    EOS5C02  305
1132   471    688    EOS5C04  305
1133   472    689    EOS5C06  305
1134   473    690    EOS5C08  305
1135   474    691    EOS5C10  305
1136   475    692    EOS5C12  305
1137   476    693    EOS5C14  305
1138   477    694    EOS5C16  305
1139   478    695    EOS6A02  304
1140   479    696    EOS6A04  304
1141   480    697    EOS6A06  304
1142   481    698    EOS6A08  304
1143   482    699    EOS6A10  304
1144   483    700    EOS6A12  304
1145   484    701    EOS6A14  304
1146   485    702    EOS6A16  304
1147   486    703    EOS6C02  305
1148   487    704    EOS6C04  305
1149   488    705    EOS6C06  305
1150   489    706    EOS6C08  305
1151   490    707    EOS6C10  305
1152   491    708    EOS6C12  305
1153   492    709    EOS6C14  305
1154   493    710    EOS6C16  305
245   1182   1182   BIX7A02  302
246   1186   1183   BIX7A04  302
247   1183   1184   BIX7A06  302
248   1187   1185   BIX7A08  302
249   1188   1186   BIX7A10  302
250   1184   1187   BIX7A12  302
251   1181   1188   BIX7A14  302
252   1185   1181   BIX7A16  302
245   1189   1189   BIY7A02  302
246   1179   1190   BIY7A04  302
247   1190   1191   BIY7A06  302
248   1191   1192   BIY7A08  302
249   1192   1193   BIY7A10  302
250   1193   1194   BIY7A12  302
251   1180   1195   BIY7A14  302
252   1194   1196   BIY7A16  302
